{
	"origin":[
"#[PERSONAJE:#ANIMAL#]HISTORIA#"      
],      
"HISTORIA":["Había una vez un #PERSONAJE#. Un día este #PERSONAJE# comió #COMIDA# y murió en agonía. Fin."
],
	"ANIMAL":[
		"gato",
		"perro",
		"tecolote",
		"tlacuache",
		"dinosaurio",
		"ajolote",
		"tortuga"
],
	"COMIDA":[
		"#PLATILLO# #LUGAR#",
		"#PLATILLO# #INGRED#"
],
	"PLATILLO":[
		"tacos",
		"tortas",
		"gorditas",
		"tamales",
		"picaditas",
		"sincronizadas"
],
	"LUGAR":[
		"del metro Candelaria",
		"del bosque de Chapultepec",
		"de Tepito",
		"de CU",
		"de doña pelos",
		"del zócalo"
],
	"INGRED":[
		"de chicharrón",
		"de suadero",
		"de hongos",
		"de flor de calabaza",
		"de asada",
		"de mixiote"
]
}
